…
``` r
penguins |> 
  group_by(island, diet, body_mass_g) |>
  summarize(meanMass=mean(body_mass_g, na.rm = TRUE))
```

    ## `summarise()` has grouped output by 'island', 'diet'. You can override using
    ## the `.groups` argument.

    ## # A tibble: 3,179 × 4
    ## # Groups:   island, diet [12]
    ##    island diet  body_mass_g meanMass
    ##    <fct>  <fct>       <dbl>    <dbl>
    ##  1 Biscoe fish         4013     4013
    ##  2 Biscoe fish         4020     4020
    ##  3 Biscoe fish         4197     4197
    ##  4 Biscoe fish         4218     4218
    ##  5 Biscoe fish         4228     4228
    ##  6 Biscoe fish         4323     4323
    ##  7 Biscoe fish         4327     4327
    ##  8 Biscoe fish         4356     4356
    ##  9 Biscoe fish         4366     4366
    ## 10 Biscoe fish         4386     4386
    ## # ℹ 3,169 more rows
…
